Assignment 1/Assignment1_mux/simulation/qsim/mejia_2to1_mux.msim.vcd
$comment
	File created using the following command:
		vcd file mejia_2to1_mux.msim.vcd -direction
$end
$date
	Sat Sep 12 22:33:23 2020
$end
$version
	ModelSim Version 10.5b
$end
$timescale
	1ps
$end

$scope module mejia_2to1_mux_vhd_vec_tst $end
$var wire 1 ! f $end
$var wire 1 " s $end
$var wire 1 # x1 $end
$var wire 1 $ x2 $end

$scope module i1 $end
$var wire 1 % gnd $end
$var wire 1 & vcc $end
$var wire 1 ' unknown $end
$var wire 1 ( devoe $end
$var wire 1 ) devclrn $end
$var wire 1 * devpor $end
$var wire 1 + ww_devoe $end
$var wire 1 , ww_devclrn $end
$var wire 1 - ww_devpor $end
$var wire 1 . ww_x1 $end
$var wire 1 / ww_x2 $end
$var wire 1 0 ww_s $end
$var wire 1 1 ww_f $end
$var wire 1 2 \~QUARTUS_CREATED_GND~I_combout\ $end
$var wire 1 3 \s~input_o\ $end
$var wire 1 4 \x1~input_o\ $end
$var wire 1 5 \x2~input_o\ $end
$var wire 1 6 \f~0_combout\ $end
$var wire 1 7 \ALT_INV_x1~input_o\ $end
$var wire 1 8 \ALT_INV_s~input_o\ $end
$var wire 1 9 \ALT_INV_x2~input_o\ $end
$upscope $end
$upscope $end
$enddefinitions $end
#0
$dumpvars
0!
0"
0#
0$
0%
1&
x'
1(
1)
1*
1+
1,
1-
0.
0/
00
01
x2
03
04
05
06
17
18
19
$end
#1000
1"
10
13
08
#2000
0"
1$
00
1/
15
03
18
09
#3000
1"
10
13
08
16
11
1!
#4000
0"
0$
1#
00
0/
1.
14
05
03
18
19
07
#5000
1"
10
13
08
06
01
0!
#6000
0"
1$
00
1/
15
03
18
09
16
11
1!
#7000
1"
10
13
08
#8000
0"
0$
0#
00
0/
0.
04
05
03
18
19
17
06
01
0!
#9000
1"
10
13
08
